My Data Analysis Portfolio - Machine Learning
…
tree_res %>%
  collect_metrics()

# A tibble: 50 × 8
   cost_complexity tree_depth .metric .estimator     mean     n  std_err .config
             <dbl>      <int> <chr>   <chr>         <dbl> <int>    <dbl> <chr>  
 1    0.0000000001          1 rmse    standard     1.19      25  0.0181  Prepro…
 2    0.0000000001          1 rsq     standard     0.0361    25  0.00422 Prepro…
 3    0.0000000178          1 rmse    standard     1.19      25  0.0181  Prepro…
 4    0.0000000178          1 rsq     standard     0.0361    25  0.00422 Prepro…
 5    0.00000316            1 rmse    standard     1.19      25  0.0181  Prepro…
 6    0.00000316            1 rsq     standard     0.0361    25  0.00422 Prepro…
 7    0.000562              1 rmse    standard     1.19      25  0.0181  Prepro…
 8    0.000562              1 rsq     standard     0.0361    25  0.00422 Prepro…
 9    0.1                   1 rmse    standard     1.21      25  0.0177  Prepro…
10    0.1                   1 rsq     standard   NaN          0 NA       Prepro…
# … with 40 more rows
…
#train model
lasso_res <- 
  lasso_wf %>%
  tune_grid(
    resamples = fold_data, 
    grid = lasso_grid,
    control = control_grid(verbose = FALSE, save_pred = TRUE),
            metrics = NULL)

lasso_res %>%
  collect_metrics()

# A tibble: 60 × 7
    penalty .metric .estimator   mean     n std_err .config              
      <dbl> <chr>   <chr>       <dbl> <int>   <dbl> <chr>                
 1 0.0001   rmse    standard   1.18      25 0.0167  Preprocessor1_Model01
 2 0.0001   rsq     standard   0.0819    25 0.00875 Preprocessor1_Model01
 3 0.000127 rmse    standard   1.18      25 0.0167  Preprocessor1_Model02
 4 0.000127 rsq     standard   0.0819    25 0.00875 Preprocessor1_Model02
 5 0.000161 rmse    standard   1.18      25 0.0167  Preprocessor1_Model03
 6 0.000161 rsq     standard   0.0819    25 0.00875 Preprocessor1_Model03
 7 0.000204 rmse    standard   1.18      25 0.0167  Preprocessor1_Model04
 8 0.000204 rsq     standard   0.0819    25 0.00875 Preprocessor1_Model04
 9 0.000259 rmse    standard   1.18      25 0.0167  Preprocessor1_Model05
10 0.000259 rsq     standard   0.0819    25 0.00875 Preprocessor1_Model05
# … with 50 more rows
…
