My Data Analysis Portfolio - Tidy Tuesday Exercise
…
                      Length Class       Mode
egg-production        6      spec_tbl_df list
cage-free-percentages 4      spec_tbl_df list

eggproduction <- tuesdata$'egg-production'
cagefreepercentages <- tuesdata$'cage-free-percentages'

Initial data exploration

Summary stats for eggproduction

tibble(eggproduction) 

# A tibble: 220 × 6
   observed_month prod_type     prod_process   n_hens     n_eggs source         
   <date>         <chr>         <chr>           <dbl>      <dbl> <chr>          
 1 2016-07-31     hatching eggs all          57975000 1147000000 ChicEggs-09-23…
 2 2016-08-31     hatching eggs all          57595000 1142700000 ChicEggs-10-21…
 3 2016-09-30     hatching eggs all          57161000 1093300000 ChicEggs-11-22…
 4 2016-10-31     hatching eggs all          56857000 1126700000 ChicEggs-12-23…
 5 2016-11-30     hatching eggs all          57116000 1096600000 ChicEggs-01-24…
 6 2016-12-31     hatching eggs all          57750000 1132900000 ChicEggs-02-28…
 7 2017-01-31     hatching eggs all          57991000 1123400000 ChicEggs-03-21…
 8 2017-02-28     hatching eggs all          58286000 1014500000 ChicEggs-04-21…
 9 2017-03-31     hatching eggs all          58735000 1128500000 ChicEggs-05-22…
10 2017-04-30     hatching eggs all          59072000 1097200000 ChicEggs-06-23…
# … with 210 more rows
…
Summary stats for cagefreepercentages

tibble(cagefreepercentages) 

# A tibble: 96 × 4
   observed_month percent_hens percent_eggs source                             
   <date>                <dbl>        <dbl> <chr>                              
 1 2007-12-31              3.2           NA Egg-Markets-Overview-2019-10-19.pdf
 2 2008-12-31              3.5           NA Egg-Markets-Overview-2019-10-19.pdf
 3 2009-12-31              3.6           NA Egg-Markets-Overview-2019-10-19.pdf
 4 2010-12-31              4.4           NA Egg-Markets-Overview-2019-10-19.pdf
 5 2011-12-31              5.4           NA Egg-Markets-Overview-2019-10-19.pdf
 6 2012-12-31              6             NA Egg-Markets-Overview-2019-10-19.pdf
 7 2013-12-31              5.9           NA Egg-Markets-Overview-2019-10-19.pdf
 8 2014-12-31              5.7           NA Egg-Markets-Overview-2019-10-19.pdf
 9 2015-12-31              8.6           NA Egg-Markets-Overview-2019-10-19.pdf
10 2016-04-30              9.9           NA Egg-Markets-Overview-2016-12-02.pdf
# … with 86 more rows
…
Data wrangling

Merging all the data by date

completedata <- inner_join(cagefreepercentages, eggproduction, by="observed_month")

Warning in inner_join(cagefreepercentages, eggproduction, by = "observed_month"): Each row in `x` is expected to match at most 1 row in `y`.
ℹ Row 11 of `x` matches multiple rows.
ℹ If multiple matches are expected, set `multiple = "all"` to silence this
  warning.

tibble(completedata)

# A tibble: 238 × 9
   observed_month percen…¹ perce…² sourc…³ prod_…⁴ prod_…⁵ n_hens n_eggs sourc…⁶
   <date>            <dbl>   <dbl> <chr>   <chr>   <chr>    <dbl>  <dbl> <chr>  
 1 2016-08-31         10.1    9.63 comput… hatchi… all     5.76e7 1.14e9 ChicEg…
 2 2016-08-31         10.1    9.63 comput… table … all     3.01e8 7.41e9 ChicEg…
 3 2016-08-31         10.1    9.63 comput… table … cage-f… 1.7 e7 3.98e8 PY2016…
 4 2016-08-31         10.1    9.63 comput… table … cage-f… 1.35e7 3.16e8 PY2016…
 5 2016-08-31         12     NA    Egg-Ma… hatchi… all     5.76e7 1.14e9 ChicEg…
 6 2016-08-31         12     NA    Egg-Ma… table … all     3.01e8 7.41e9 ChicEg…
 7 2016-08-31         12     NA    Egg-Ma… table … cage-f… 1.7 e7 3.98e8 PY2016…
 8 2016-08-31         12     NA    Egg-Ma… table … cage-f… 1.35e7 3.16e8 PY2016…
 9 2016-09-30         10.1    9.56 comput… hatchi… all     5.72e7 1.09e9 ChicEg…
10 2016-09-30         10.1    9.56 comput… table … all     3.03e8 7.20e9 ChicEg…
# … with 228 more rows, and abbreviated variable names ¹​percent_hens,
#   ²​percent_eggs, ³​source.x, ⁴​prod_type, ⁵​prod_process, ⁶​source.y

Let’s remove any extraneous variables for our purposes. In this case we can remove the source variable

cleandata <- eggproduction %>%
  select(!c(source))

tibble(cleandata)

# A tibble: 220 × 5
   observed_month prod_type     prod_process   n_hens     n_eggs
   <date>         <chr>         <chr>           <dbl>      <dbl>
 1 2016-07-31     hatching eggs all          57975000 1147000000
 2 2016-08-31     hatching eggs all          57595000 1142700000
 3 2016-09-30     hatching eggs all          57161000 1093300000
 4 2016-10-31     hatching eggs all          56857000 1126700000
 5 2016-11-30     hatching eggs all          57116000 1096600000
 6 2016-12-31     hatching eggs all          57750000 1132900000
 7 2017-01-31     hatching eggs all          57991000 1123400000
 8 2017-02-28     hatching eggs all          58286000 1014500000
 9 2017-03-31     hatching eggs all          58735000 1128500000
10 2017-04-30     hatching eggs all          59072000 1097200000
# … with 210 more rows
…
dt_res %>% collect_metrics()

# A tibble: 54 × 9
   cost_complexity tree_depth min_n .metric .estim…¹  mean     n std_err .config
             <dbl>      <int> <int> <chr>   <chr>    <dbl> <int>   <dbl> <chr>  
 1    0.0000000001          1     2 rmse    standard 0.898     5 0.0515  Prepro…
 2    0.0000000001          1     2 rsq     standard 0.842     5 0.0193  Prepro…
 3    0.0000000001          1    21 rmse    standard 0.898     5 0.0515  Prepro…
 4    0.0000000001          1    21 rsq     standard 0.842     5 0.0193  Prepro…
 5    0.0000000001          1    40 rmse    standard 0.898     5 0.0515  Prepro…
 6    0.0000000001          1    40 rsq     standard 0.842     5 0.0193  Prepro…
 7    0.0000000001          8     2 rmse    standard 0.407     5 0.0240  Prepro…
 8    0.0000000001          8     2 rsq     standard 0.969     5 0.00341 Prepro…
 9    0.0000000001          8    21 rmse    standard 0.721     5 0.0455  Prepro…
10    0.0000000001          8    21 rsq     standard 0.906     5 0.0108  Prepro…
# … with 44 more rows, and abbreviated variable name ¹​.estimator
…
lr_res %>% collect_metrics()

# A tibble: 60 × 7
    penalty .metric .estimator  mean     n std_err .config              
      <dbl> <chr>   <chr>      <dbl> <int>   <dbl> <chr>                
 1 0.0001   rmse    standard   0.357     5 0.0310  Preprocessor1_Model01
 2 0.0001   rsq     standard   0.977     5 0.00432 Preprocessor1_Model01
 3 0.000127 rmse    standard   0.357     5 0.0310  Preprocessor1_Model02
 4 0.000127 rsq     standard   0.977     5 0.00432 Preprocessor1_Model02
 5 0.000161 rmse    standard   0.357     5 0.0310  Preprocessor1_Model03
 6 0.000161 rsq     standard   0.977     5 0.00432 Preprocessor1_Model03
 7 0.000204 rmse    standard   0.357     5 0.0310  Preprocessor1_Model04
 8 0.000204 rsq     standard   0.977     5 0.00432 Preprocessor1_Model04
 9 0.000259 rmse    standard   0.357     5 0.0310  Preprocessor1_Model05
10 0.000259 rsq     standard   0.977     5 0.00432 Preprocessor1_Model05
# … with 50 more rows
…
rf_res %>% collect_metrics()

# A tibble: 25 × 8
    mtry min_n .metric .estimator  mean     n std_err .config              
   <int> <int> <chr>   <chr>      <dbl> <int>   <dbl> <chr>                
 1    21     4 rmse    standard   0.371     5  0.0323 Preprocessor1_Model01
 2    11    26 rmse    standard   0.490     5  0.0318 Preprocessor1_Model02
 3    14    38 rmse    standard   0.573     5  0.0307 Preprocessor1_Model03
 4    16    10 rmse    standard   0.394     5  0.0308 Preprocessor1_Model04
 5     4     8 rmse    standard   0.543     5  0.0497 Preprocessor1_Model05
 6     1    16 rmse    standard   1.54      5  0.0542 Preprocessor1_Model06
 7    10    27 rmse    standard   0.503     5  0.0351 Preprocessor1_Model07
 8    20    19 rmse    standard   0.404     5  0.0316 Preprocessor1_Model08
 9     3    34 rmse    standard   0.818     5  0.0575 Preprocessor1_Model09
10    13    37 rmse    standard   0.573     5  0.0292 Preprocessor1_Model10
# … with 15 more rows
…
bt_res %>% collect_metrics()

# A tibble: 54 × 9
   trees min_n tree_depth .metric .estimator  mean     n std_err .config        
   <int> <int>      <int> <chr>   <chr>      <dbl> <int>   <dbl> <chr>          
 1     1     2          1 rmse    standard   2.03      5 0.0638  Preprocessor1_…
 2     1     2          1 rsq     standard   0.842     5 0.0193  Preprocessor1_…
 3  1000     2          1 rmse    standard   0.238     5 0.0265  Preprocessor1_…
 4  1000     2          1 rsq     standard   0.990     5 0.00221 Preprocessor1_…
 5  2000     2          1 rmse    standard   0.237     5 0.0225  Preprocessor1_…
 6  2000     2          1 rsq     standard   0.990     5 0.00181 Preprocessor1_…
 7     1    21          1 rmse    standard   2.03      5 0.0638  Preprocessor1_…
 8     1    21          1 rsq     standard   0.842     5 0.0193  Preprocessor1_…
 9  1000    21          1 rmse    standard   0.635     5 0.0422  Preprocessor1_…
10  1000    21          1 rsq     standard   0.924     5 0.0103  Preprocessor1_…
# … with 44 more rows
…
