My Data Analysis Portfolio - Tidy Tuesday Exercise
…
This is a bit difficult to discern any information or conclusions from, other than it appears that the number of movies produced each year has increased!

Let’s see if we can take an average of the age gaps for each year and create a better plot.

This first step will create a new data frame with each year and the average age gap for that year. Not all years are represented in the dataset of movies, so there are some years which do not appear in the table.

gap_byyear <- data %>%
  group_by(release_year) %>%
  summarise_at(vars(age_difference), list(year_meandiff = mean))
gap_byyear

# A tibble: 82 × 2
   release_year year_meandiff
          <dbl>         <dbl>
 1         1935         13   
 2         1936         21   
 3         1937          7.33
 4         1939         12   
 5         1940         11.3 
 6         1942         20.5 
 7         1944         25   
 8         1946         25   
 9         1947         25   
10         1948         23.2 
# … with 72 more rows
…
age_gaps by director

Let’s do something similar to what we did above by calculating average age gaps for each year, but this time we can do it by director.

gap_bydirector <- data %>%
  group_by(director) %>%
  summarise_at(vars(age_difference), list(director_meandiff = mean))
gap_bydirector

# A tibble: 510 × 2
   director                    director_meandiff
   <chr>                                   <dbl>
 1 Abdellatif Kechiche                      8   
 2 Adam McKay                               6.67
 3 Adam Nee, Aaron Nee                     16   
 4 Adam Shankman                           12.2 
 5 Adrian Lyne                             12.8 
 6 Alan Parker                             15   
 7 Alan Shapiro                             7   
 8 Alejandro Agresti                        0   
 9 Alejandro González Iñárritu             19   
10 Alex Garland                             4.67
# … with 500 more rows
…
